%YAML 1.1
%TAG !u! tag:unity3d.com,2011:
--- !u!1045 &1
EditorBuildSettings:
  m_ObjectHideFlags: 0
  serializedVersion: 2
  m_Scenes:
  - enabled: 1
    path: Assets/Laboratory/LobbyManager/Scenes/Lobby.unity
    guid: 6fffec94f172ff144b3320cfdf500e7b
  - enabled: 1
    path: Assets/Scenes/GamePlay.unity
    guid: 9fc0d4010bbf28b4594072e72b8655ab
  m_configObjects: {}
